{
  "project_info": {
    "project_number": "170256660104",
    "project_id": "hyundai-glovis-autobell",
    "storage_bucket": "hyundai-glovis-autobell.appspot.com"
  },
  "client": [
    {
      "client_info": {
        "mobilesdk_app_id": "1:170256660104:android:ae223ada4fb3448e34913d",
        "android_client_info": {
          "package_name": "glovis.glovisaa.autobell"
        }
      },
      "oauth_client": [
        {
          "client_id": "170256660104-h335t04ag31j87bea8iua0ujaghotqvs.apps.googleusercontent.com",
          "client_type": 3
        }
      ],
      "api_key": [
        {
          "current_key": "AIzaSyBZncUHss1dsGTjYhkuGAvXQyHo3FXQHZM"
        }
      ],
      "services": {
        "appinvite_service": {
          "other_platform_oauth_client": [
            {
              "client_id": "170256660104-h335t04ag31j87bea8iua0ujaghotqvs.apps.googleusercontent.com",
              "client_type": 3
            },
            {
              "client_id": "170256660104-q09vnkqn1e7tlc08fer0j8qpjks12f0c.apps.googleusercontent.com",
              "client_type": 2,
              "ios_info": {
                "bundle_id": "glovis.glovisaa.autobell",
                "app_store_id": "1492011865"
              }
            }
          ]
        }
      }
    }
  ],
  "configuration_version": "1"
}